<?xml version="1.0" encoding="utf-8"?>
<!-- Generator: Adobe Illustrator 15.0.0, SVG Export Plug-In . SVG Version: 6.00 Build 0)  -->
<!DOCTYPE svg PUBLIC "-//W3C//DTD SVG 1.1 Basic//EN" "http://www.w3.org/Graphics/SVG/1.1/DTD/svg11-basic.dtd">
<svg version="1.1" baseProfile="basic" id="Layer_1"
	 xmlns="http://www.w3.org/2000/svg" xmlns:xlink="http://www.w3.org/1999/xlink" x="0px" y="0px" width="21px" height="17px"
	 viewBox="0 0 21 17" xml:space="preserve">
<polyline fill="none" stroke="#000000" stroke-miterlimit="10" points="1.5,12 1.5,1.5 15,1.5 "/>
<polyline fill="none" stroke="#000000" stroke-miterlimit="10" points="3.5,14 3.5,3.5 17,3.5 "/>
<rect x="5.5" y="5.5" fill="none" stroke="#000000" stroke-miterlimit="10" width="14" height="10"/>
</svg>
