<?xml version="1.0" encoding="utf-8"?>
<!-- Generator: Adobe Illustrator 15.0.0, SVG Export Plug-In . SVG Version: 6.00 Build 0)  -->
<!DOCTYPE svg PUBLIC "-//W3C//DTD SVG 1.1 Basic//EN" "http://www.w3.org/Graphics/SVG/1.1/DTD/svg11-basic.dtd">
<svg version="1.1" baseProfile="basic" id="Layer_1"
	 xmlns="http://www.w3.org/2000/svg" xmlns:xlink="http://www.w3.org/1999/xlink" x="0px" y="0px" width="173.384px"
	 height="17.946px" viewBox="0 0 173.384 17.946" xml:space="preserve">
<g>
	<path fill-rule="evenodd" clip-rule="evenodd" d="M25.673,17.805h-11.27V7.622h5.647c1.012,0,1.837-0.822,1.837-1.835
		c0-1.012-0.825-1.836-1.837-1.836h-5.652V0.14h5.652c3.112,0,5.646,2.533,5.646,5.647c0,3.113-2.533,5.646-5.646,5.646h-1.838
		v2.561h7.46V17.805"/>
	<path fill-rule="evenodd" clip-rule="evenodd" d="M33.237,17.805h-5.592v-3.811h5.592c1.013,0,1.837-0.823,1.837-1.836
		c0-1.013-0.824-1.835-1.837-1.835h-5.646V0.14h10.211v3.811h-6.4v2.562h1.836c3.113,0,5.646,2.532,5.646,5.645
		C38.883,15.272,36.351,17.805,33.237,17.805"/>
</g>
<polygon fill="#1A1A18" points="8.396,0.14 5.529,7.565 3.48,7.821 3.48,0.14 0,0.14 0,17.805 3.48,17.805 3.48,11.02 5.58,10.765 
	8.498,17.805 12.569,17.805 8.679,8.921 12.466,0.14 "/>
<g>
	<path d="M54.812,17.446c-1.249,0.25-2.924,0.5-4.623,0.5c-5.149,0-6.224-3.349-6.224-8.897C43.965,3.599,44.864,0,50.188,0
		c1.749,0,3.474,0.25,4.623,0.476l-0.074,0.874c-1.075-0.225-3.05-0.5-4.549-0.5c-4.699,0-5.274,3.225-5.274,8.199
		c0,4.998,0.675,8.047,5.274,8.047c1.574,0,3.249-0.25,4.549-0.499L54.812,17.446z"/>
	<path d="M57.19,9.048C57.19,3.349,58.54,0,63.889,0s6.698,3.3,6.698,9.049c0,6.048-1.325,8.897-6.698,8.897
		C58.489,17.946,57.19,14.846,57.19,9.048z M69.637,9.048c0-5.174-1.05-8.199-5.748-8.199c-4.749,0-5.749,2.975-5.749,8.199
		c0,5.248,0.925,8.047,5.749,8.047C68.712,17.095,69.637,14.546,69.637,9.048z"/>
	<path d="M75.414,10.472v7.249h-0.899V0.225h6.273c3.474,0,5.198,1.499,5.198,4.999c0,2.699-1.024,4.623-3.624,5.123l3.949,7.374
		h-1.024l-3.899-7.249H75.414z M80.788,1.075h-5.374v8.548h5.374c3.174,0,4.249-1.799,4.249-4.398
		C85.037,2.325,83.712,1.075,80.788,1.075z"/>
	<path d="M90.739,11.297v6.424H89.84V0.225h6.373c3.624,0,5.174,1.749,5.174,5.374c0,3.623-1.55,5.698-5.174,5.698H90.739z
		 M96.213,10.447c3.024,0,4.224-1.824,4.224-4.848c0-3.025-1.199-4.524-4.224-4.524h-5.474v9.372H96.213z"/>
	<path d="M104.039,9.048c0-5.699,1.35-9.049,6.698-9.049s6.698,3.3,6.698,9.049c0,6.048-1.325,8.897-6.698,8.897
		C105.338,17.946,104.039,14.846,104.039,9.048z M116.485,9.048c0-5.174-1.05-8.199-5.748-8.199c-4.749,0-5.749,2.975-5.749,8.199
		c0,5.248,0.925,8.047,5.749,8.047C115.561,17.095,116.485,14.546,116.485,9.048z"/>
	<path d="M122.263,10.472v7.249h-0.899V0.225h6.273c3.474,0,5.198,1.499,5.198,4.999c0,2.699-1.024,4.623-3.624,5.123l3.949,7.374
		h-1.024l-3.899-7.249H122.263z M127.637,1.075h-5.374v8.548h5.374c3.174,0,4.249-1.799,4.249-4.398
		C131.886,2.325,130.561,1.075,127.637,1.075z"/>
	<path d="M140.312,0.225h2.649l5.374,17.496h-0.9l-1.624-5.374h-8.348l-1.625,5.374h-0.899L140.312,0.225z M137.737,11.498h7.798
		l-3.199-10.423h-1.399L137.737,11.498z"/>
	<path d="M148.039,0.225h12.497v0.85h-5.774v16.646h-0.899V1.075h-5.823V0.225z"/>
	<path d="M163.163,0.225h10.222v0.85h-9.322v7.273h7.823v0.85h-7.823v7.673h9.322v0.851h-10.222V0.225z"/>
</g>
</svg>
